<svg version="1.1" id="Слой_1" xmlns="http://www.w3.org/2000/svg" xmlns:xlink="http://www.w3.org/1999/xlink" x="0px" y="0px"
	 width="19px" height="18.65px" viewBox="0 0 19 18.65" enable-background="new 0 0 19 18.65" xml:space="preserve">
<g>
	<g>
		<path d="M14,7v4c0,0.553-0.447,1-1,1c-0.17,0-0.33,0-0.939-0.5c-0.621-0.5-1.671-1.5-2.75-2
			C8.31,9.04,7.279,9,6.26,9l1.21,3.32L7.5,12.5C7.5,12.775,7.276,13,7,13H5c-0.221,0-0.41-0.141-0.471-0.34L3.189,9H3
			C2.447,9,2,8.553,2,8C0.896,8,0,7.104,0,6s0.896-2,2-2c0-0.552,0.447-1,1-1h3c1.109,0,2.221,0,3.311-0.5
			c1.079-0.5,2.129-1.5,2.75-2C12.67,0,12.83,0,13,0c0.553,0,1,0.448,1,1v4c0.553,0,1,0.448,1,1S14.553,7,14,7 M19,6
			c0,1.38-0.561,2.63-1.46,3.54l-1.42-1.42C16.66,7.58,17,6.83,17,6s-0.34-1.58-0.88-2.12l1.42-1.42C18.439,3.37,19,4.62,19,6z"/>
	</g>
	<g>
		<path d="M8.385,18.65h1.859v-1.859H8.385V18.65z"/>
		<path d="M4.667,18.65h1.858v-1.859H4.667V18.65z"/>
		<path d="M12.103,18.65h1.859v-1.859h-1.859V18.65z"/>
	</g>
</g>
</svg>