<?xml version="1.0" encoding="UTF-8"?>
<svg width="40px" height="40px" viewBox="0 0 40 40" version="1.1" xmlns="http://www.w3.org/2000/svg" xmlns:xlink="http://www.w3.org/1999/xlink">
    <!-- Generator: Sketch 46.2 (44496) - http://www.bohemiancoding.com/sketch -->
    <title>i-add-img</title>
    <desc>Created with Sketch.</desc>
    <defs></defs>
    <g id="Page-1" stroke="none" stroke-width="1" fill="none" fill-rule="evenodd">
        <g id="icons" transform="translate(-44.000000, -417.000000)" stroke="#666666">
            <g id="add-img" transform="translate(52.000000, 427.000000)">
                <rect id="Rectangle-path" stroke-width="2" x="0.0921706865" y="0.0480890538" width="23.8641929" height="19.1394434" rx="1"></rect>
                <polyline id="Shape" stroke-width="2" stroke-linecap="round" points="0.0921706865 16.3142115 8.29135436 8.11502783 14.1502041 13.977885 15.1039703 14.9316512"></polyline>
                <polyline id="Shape" stroke-width="2" stroke-linecap="round" points="14.6511317 11.8739889 17.9091651 8.61595547 23.9523562 14.6591466"></polyline>
                <circle id="Oval" cx="19.2837106" cy="4.20779221" r="1.45469388"></circle>
            </g>
        </g>
    </g>
</svg>