<?xml version="1.0" encoding="UTF-8"?>
<svg width="40px" height="40px" viewBox="0 0 40 40" version="1.1" xmlns="http://www.w3.org/2000/svg" xmlns:xlink="http://www.w3.org/1999/xlink">
    <!-- Generator: Sketch 47.1 (45422) - http://www.bohemiancoding.com/sketch -->
    <title>e8FZGBZGJWo Copy 10</title>
    <desc>Created with Sketch.</desc>
    <defs>
        <circle id="path-1" cx="20" cy="20" r="20"></circle>
    </defs>
    <g id="Page-1" stroke="none" stroke-width="1" fill="none" fill-rule="evenodd">
        <g id="e8FZGBZGJWo-Copy-10">
            <mask id="mask-2" fill="white">
                <use xlink:href="#path-1"></use>
            </mask>
            <use id="Mask" fill="#5b9be4" xlink:href="#path-1"></use>
            <g id="Group-16" mask="url(#mask-2)" fill="#ffffff">
                <g transform="translate(13.000000, 13.000000)">
                    <path d="M7,6.62068966 C8.59972134,6.62068966 9.89655172,5.3695656 9.89655172,3.72413793 C9.89655172,2.07871026 8.59972134,0 7,0 C5.40027866,0 4.10344828,2.07871026 4.10344828,3.72413793 C4.10344828,5.3695656 5.40027866,6.62068966 7,6.62068966 Z" id="Oval-7" transform="translate(7.000000, 3.310345) rotate(-180.000000) translate(-7.000000, -3.310345) "></path>
                    <path d="M4.58602397,7.69368113 C5.48072715,7.96851378 6.32888121,8.10593011 7.13048616,8.10593011 C7.93209112,8.10593011 8.78024518,7.96851378 9.67494835,7.69368113 L9.67496302,7.69372887 C11.2049242,7.22375927 12.8261884,8.08305222 13.296158,9.6130134 C13.3112066,9.66200324 13.324953,9.71138365 13.3373827,9.76110252 L13.854335,11.8289117 L13.854335,11.8289117 C13.9882837,12.3647066 13.662523,12.9076411 13.1267281,13.0415899 C13.0474075,13.06142 12.9659543,13.0714474 12.8841925,13.0714474 L1.37677981,13.0714474 L1.37677981,13.0714474 C0.824495061,13.0714474 0.376779811,12.6237321 0.376779811,12.0714474 C0.376779811,11.9896855 0.38680716,11.9082323 0.406637311,11.8289117 L0.923589612,9.76110252 L0.923589612,9.76110252 C1.31177185,8.20837358 2.88519124,7.26432194 4.43792018,7.65250418 C4.48763906,7.6649339 4.53701946,7.6786803 4.58600931,7.69372887 Z" id="Rectangle-8"></path>
                </g>
            </g>
        </g>
    </g>
</svg>