<svg xmlns="http://www.w3.org/2000/svg" width="24" height="24" viewBox="0 0 24 24">
    <path fill="none" fill-rule="evenodd" stroke="#666" stroke-linecap="square" stroke-width="2" d="M6.454 14.65l4.502 3.93 7.607-11.05"/>
</svg>
