<svg width="32px" height="32px" viewBox="0 0 32 32" version="1.1" xmlns="http://www.w3.org/2000/svg" xmlns:xlink="http://www.w3.org/1999/xlink">
    <g id="Page-1" stroke="none" stroke-width="1" fill="none" fill-rule="evenodd">
        <g id="32x32" transform="translate(0.000000, -160.000000)" fill="#666666">
            <g id="Group" transform="translate(4.000000, 165.000000)">
                <path d="M5.6031091,21.1086216 C3.91775902,21.7806784 2.03882669,21.7806784 0.353476605,21.1086216 C2.32933166,20.5813406 3.78949434,19.0516464 3.89379167,17.1800887 C3.89379167,17.1105571 3.89379167,17.0410256 3.89379167,16.971494 C2.43647101,15.9157149 1.29622107,14.4808837 0.596837052,12.8227778 C0.418844729,12.3817438 0.279263292,11.9261655 0.179647715,11.4611182 C0.0588283251,10.9033254 -0.00139527344,10.3341153 2.45277719e-05,9.76338935 C2.45277719e-05,4.36889945 5.37133724,0 12.0000123,0 C18.6286873,0 24,4.36889945 24,9.76338935 C24,15.1578792 18.622893,19.5267787 11.994218,19.5267787 C10.822969,19.5310427 9.65554541,19.3928975 8.51764016,19.1153837 C7.72015346,20.0040474 6.72049176,20.6877127 5.6031091,21.1086216 Z M6,12 C7.1045695,12 8,11.1045695 8,10 C8,8.8954305 7.1045695,8 6,8 C4.8954305,8 4,8.8954305 4,10 C4,11.1045695 4.8954305,12 6,12 Z M12,12 C13.1045695,12 14,11.1045695 14,10 C14,8.8954305 13.1045695,8 12,8 C10.8954305,8 10,8.8954305 10,10 C10,11.1045695 10.8954305,12 12,12 Z M18,12 C19.1045695,12 20,11.1045695 20,10 C20,8.8954305 19.1045695,8 18,8 C16.8954305,8 16,8.8954305 16,10 C16,11.1045695 16.8954305,12 18,12 Z" id="Combined-Shape"></path>
            </g>
        </g>
    </g>
</svg>