<?xml version="1.0" encoding="UTF-8"?>
<svg width="24px" height="24px" viewBox="0 0 24 24" version="1.1" xmlns="http://www.w3.org/2000/svg" xmlns:xlink="http://www.w3.org/1999/xlink">
    <!-- Generator: Sketch 46.2 (44496) - http://www.bohemiancoding.com/sketch -->
    <title>i-edit_thin</title>
    <desc>Created with Sketch.</desc>
    <defs></defs>
    <g id="Page-1" stroke="none" stroke-width="1" fill="none" fill-rule="evenodd" stroke-linecap="round" stroke-linejoin="round">
        <g id="icons" transform="translate(-46.000000, -511.000000)" stroke="#666666">
            <g id="Page-1" transform="translate(52.000000, 513.000000)">
                <path d="M4.440618,17.15624 L0.390078,19.60024 L0.664638,14.78824 L9.141678,0.55544 C9.233718,0.40264 9.428718,0.35384 9.578478,0.44744 L12.812358,2.47544 C12.961338,2.57064 13.008918,2.77064 12.917658,2.92344 L4.440618,17.15624 Z" id="Stroke-1"></path>
                <path d="M7.789158,2.82264 L11.565138,5.19064" id="Stroke-3"></path>
            </g>
        </g>
    </g>
</svg>