<svg xmlns="http://www.w3.org/2000/svg" width="98" height="98" viewBox="0 0 98 98">
    <g fill="none" fill-rule="evenodd" transform="translate(1 1)">
        <circle cx="48" cy="48" r="48" stroke="#66BB6A" stroke-width="2"/>
        <g fill="#66BB6A" fill-rule="nonzero" stroke="#FFF" stroke-width="1.5">
            <path d="M72.251 22.055a2.237 2.237 0 0 1 1.693 2.676L63.58 70.49c-.043.17-.043.17-.104.335a2.245 2.245 0 0 1-2.914 1.25L17.412 54.91a2.235 2.235 0 0 1-.228-4.05l53.514-28.595a2.248 2.248 0 0 1 1.553-.21zm-2.218 4.441l-48.992 26.18L60.543 68.39l9.49-41.894z"/>
            <path d="M41.002 61.836l16.01-18.127a1.642 1.642 0 0 0-.188-2.364 1.767 1.767 0 0 0-2.439.182L37.543 60.596v15.207c0 1.214 1.014 2.197 2.265 2.197a2.29 2.29 0 0 0 1.81-.877l4.703-6.065c.574-.74.42-1.792-.343-2.348a1.766 1.766 0 0 0-2.422.332l-2.554 3.295V61.836z"/>
        </g>
    </g>
</svg>
