<?xml version="1.0" encoding="UTF-8"?>
<svg width="24px" height="24px" viewBox="0 0 24 24" version="1.1" xmlns="http://www.w3.org/2000/svg" xmlns:xlink="http://www.w3.org/1999/xlink">
    <!-- Generator: Sketch 47.1 (45422) - http://www.bohemiancoding.com/sketch -->
    <title>i-new-window</title>
    <desc>Created with Sketch.</desc>
    <defs></defs>
    <g id="Page-1" stroke="none" stroke-width="1" fill="none" fill-rule="evenodd" stroke-linecap="round">
        <g id="icons" transform="translate(-81.000000, -962.000000)" stroke="#666666">
            <g id="Group-25" transform="translate(86.000000, 965.000000)">
                <g id="Group-24">
                    <path d="M12.5,10.5 L12.5,13.5 L12.5,13.5 C12.5,14.6045695 11.6045695,15.5 10.5,15.5 L2.5,15.5 L2.5,15.5 C1.3954305,15.5 0.5,14.6045695 0.5,13.5 L0.5,5.5 L0.5,5.5 C0.5,4.3954305 1.3954305,3.5 2.5,3.5 L5.5,3.5" id="Line-16"></path>
                    <g id="Group-9" transform="translate(9.595939, 6.167368) rotate(-45.000000) translate(-9.595939, -6.167368) translate(4.595939, 3.167368)" stroke-linejoin="round">
                        <polyline id="Stroke-3" transform="translate(7.222081, 3.142857) rotate(45.000000) translate(-7.222081, -3.142857) " points="5.25779479 1.17857143 9.18636622 1.17857143 9.18636622 5.10714286"></polyline>
                        <path d="M9.21428571,3.14285714 L0.714285714,3.14285714" id="Stroke-3"></path>
                    </g>
                </g>
            </g>
        </g>
    </g>
</svg>