<svg xmlns="http://www.w3.org/2000/svg" xmlns:xlink="http://www.w3.org/1999/xlink" width="5.102040816326536" height="11.795918367346928" version="1.1"><rect id="backgroundrect" width="100%" height="100%" x="0" y="0" fill="none" stroke="none" class=""/>
    <defs/>
    
    <g class="currentLayer">
        <g id="Page-1" stroke="none" stroke-width="1" fill="none" fill-rule="evenodd" font-weight="normal" font-family="Roboto-Regular, Roboto" line-spacing="15" font-size="14" class="">
            <g id="18x18" fill="#666666">
                <text id="§" y="-93.18367338180542" x="-6.040816307067871">
                    <tspan x="-1.040816307067871" y="9.81632661819458" id="svg_1">§</tspan>
                </text>
            </g>
        </g>
    </g>
</svg>