<svg width="32px" height="32px" viewBox="0 0 32 32" version="1.1" xmlns="http://www.w3.org/2000/svg" xmlns:xlink="http://www.w3.org/1999/xlink">
    <defs></defs>
    <g id="Page-1" stroke="none" stroke-width="1" fill="none" fill-rule="evenodd">
        <g id="32x32" transform="translate(0.000000, -256.000000)" stroke="#fff">
            <g id="Page-1" transform="translate(4.000000, 260.000000)">
                <polygon id="Stroke-1" points="0.48 23.52 23.52 23.52 23.52 0.48 0.48 0.48"></polygon>
                <polyline id="Stroke-3" points="13.771872 4.32 19.679712 4.32 19.679712 10.22784"></polyline>
                <polyline id="Stroke-4" points="10.298016 19.609728 4.390176 19.609728 4.390176 13.701888"></polyline>
                <path d="M4.754016,19.245984 L19.253856,4.746144" id="Stroke-5"></path>
            </g>
        </g>
    </g>
</svg>