<?xml version="1.0" encoding="UTF-8"?>
<svg width="32px" height="32px" viewBox="0 0 32 32" version="1.1" xmlns="http://www.w3.org/2000/svg" xmlns:xlink="http://www.w3.org/1999/xlink">
    <!-- Generator: Sketch 46.2 (44496) - http://www.bohemiancoding.com/sketch -->
    <title>i-attantion</title>
    <desc>Created with Sketch.</desc>
    <defs></defs>
    <g id="Page-1" stroke="none" stroke-width="1" fill="none" fill-rule="evenodd" stroke-linecap="round">
        <g id="icons" transform="translate(-45.000000, -469.000000)" stroke="#666666" stroke-width="2">
            <g id="Group-26" transform="translate(49.000000, 473.000000)">
                <path d="M13.7524318,3.18623967 L22.3698894,18.8543443 L22.3698894,18.8543443 C22.9022021,19.8221857 22.5491364,21.0383009 21.5812951,21.5706136 C21.2860051,21.7330231 20.9544635,21.8181818 20.6174576,21.8181818 L3.38254244,21.8181818 L3.38254244,21.8181818 C2.27797294,21.8181818 1.38254244,20.9227513 1.38254244,19.8181818 C1.38254244,19.4811759 1.46770114,19.1496343 1.63011062,18.8543443 L10.2475682,3.18623967 L10.2475682,3.18623967 C10.7798809,2.2183983 11.9959961,1.8653326 12.9638375,2.39764535 C13.2961569,2.58042104 13.5696561,2.85392024 13.7524318,3.18623967 Z" id="Triangle-3" stroke-linejoin="round"></path>
                <path d="M12,9.81818182 L12,15.2727273" id="Line-12"></path>
                <path d="M12,18.5454545 L12,18.5454545" id="Line-12"></path>
            </g>
        </g>
    </g>
</svg>