<svg xmlns="http://www.w3.org/2000/svg" width="14.244897959183675" height="15.551020408163268">
    <rect id="backgroundrect" width="100%" height="100%" x="0" y="0" fill="none" stroke="none" class=""/>
    <g class="currentLayer">
        <g fill="none" fill-rule="evenodd" stroke="#4e7281" stroke-linecap="round" stroke-linejoin="round" id="svg_1" class="">
            <path d="M10.324652997970581,14.77551019191742 h3.03 c0.11000000000000006,0 0.201,-0.08700000000000008 0.201,-0.19400000000000014 V0.9695101919174193 A0.19900000000000018,0.19900000000000018 0 0 0 13.353652997970581,0.775510191917419 h-0.404 " id="svg_2"/>
            <path d="M7.940652997970581,14.77551019191742 H0.6326529979705813 V0.9695101919174193 C0.6326529979705813,0.8635101919174193 0.718652997970581,0.775510191917419 0.8246529979705816,0.775510191917419 h10.385 c0.10600000000000002,0 0.19200000000000014,0.08700000000000008 0.19200000000000014,0.19500000000000015 V11.27551019191742 " id="svg_3"/>
            <path d="M8.170652997970581,14.77551019191742 v-3.051 c0,-0.1 0.08000000000000006,-0.1800000000000001 0.1800000000000001,-0.1800000000000001 h3.051 M8.170652997970581,14.77551019191742 l3.231,-3.23 M2.786652997970581,8.356510191917419 l4.308,-0.04300000000000004 M2.786652997970581,6.160510191917419 h3.23 V4.00551019191742 h-3.23 z" id="svg_4"/>
        </g>
    </g>
</svg>