<svg width="18px" height="18px" viewBox="0 0 18 18" version="1.1" xmlns="http://www.w3.org/2000/svg" xmlns:xlink="http://www.w3.org/1999/xlink">
    <defs></defs>
    <g id="Page-1" stroke="none" stroke-width="1" fill="none" fill-rule="evenodd" stroke-linecap="square">
        <g id="18x18" transform="translate(0.000000, -90.000000)" stroke="#ffffff">
            <polyline id="Line" transform="translate(8.545717, 98.982951) rotate(8.000000) translate(-8.545717, -98.982951) " points="3.69887807 101.426105 8.10882822 104.343521 13.3925553 93.6223809"></polyline>
        </g>
    </g>
</svg>