<svg xmlns="http://www.w3.org/2000/svg" width="18" height="18" viewBox="0 0 18 18">
    <g fill="none" fill-rule="evenodd" stroke="#666" transform="translate(3 2)">
        <path d="M12.923 13.462c0-3.866-2.893-7-6.461-7-3.57 0-6.462 3.134-6.462 7"/>
        <rect width="5.462" height="5.462" x="3.731" y=".5" rx="2.731"/>
    </g>
</svg>
