<svg xmlns="http://www.w3.org/2000/svg" fill="#999999" height="16.448979591836732" width="16.42857142857143"><rect id="backgroundrect" width="100%" height="100%" x="0" y="0" fill="none" stroke="none" class=""/>
    
    
<g class="currentLayer"><title>Layer 1</title><path d="M8.163265228271484,0.16326522827148438 l-1.4100000000000001,1.4100000000000001 L12.333265228271486,7.163265228271484 H0.16326522827148438 v2 h12.17 l-5.58,5.59 L8.163265228271484,16.163265228271484 l8,-8 z" id="svg_2" class=""/></g></svg>