<?xml version="1.0" encoding="UTF-8"?>
<svg width="24px" height="24px" viewBox="0 0 24 24" version="1.1" xmlns="http://www.w3.org/2000/svg" xmlns:xlink="http://www.w3.org/1999/xlink">
    <!-- Generator: Sketch 46.2 (44496) - http://www.bohemiancoding.com/sketch -->
    <title>i-line</title>
    <desc>Created with Sketch.</desc>
    <defs></defs>
    <g id="Page-1" stroke="none" stroke-width="1" fill="none" fill-rule="evenodd" stroke-linecap="square">
        <g id="icons" transform="translate(-481.000000, -670.000000)" stroke="#666666">
            <g id="Group-19" transform="translate(485.000000, 675.000000)">
                <path d="M0.4,1.2 L15.6,1.2" id="Line-11-Copy-6"></path>
                <path d="M0.4,3.6 L6.8,3.6" id="Line-11-Copy-7"></path>
                <path d="M0.4,6 L14,6" id="Line-11-Copy-8"></path>
                <path d="M0.4,8.4 L15.6,8.4" id="Line-11-Copy-9"></path>
                <path d="M0.4,10.8 L13.2,10.8" id="Line-11-Copy-10"></path>
                <path d="M0.4,13.2 L14,13.2" id="Line-11-Copy-11"></path>
            </g>
        </g>
    </g>
</svg>