<svg xmlns="http://www.w3.org/2000/svg" xmlns:xlink="http://www.w3.org/1999/xlink" width="35" height="40" viewBox="0 0 35 40">
    <defs>
        <path id="a" d="M0 19.958v19.19h34.213V.767H0z"/>
    </defs>
    <g fill="none" fill-rule="evenodd">
        <path fill="#FF9100" d="M21.362 19.405h2.808c0-5.532 4.511-9.958 9.958-9.958V6.64c-6.979 0-12.766 5.702-12.766 12.766"/>
        <path fill="#FF9100" d="M34.128 12.34c-3.15 0-5.873 2.129-6.809 5.021-.17.681-.34 1.363-.34 2.128h2.808c0-.851.256-1.702.766-2.382a4.312 4.312 0 0 1 3.575-1.873V12.34z"/>
        <g transform="translate(0 .34)">
            <mask id="b" fill="#fff">
                <use xlink:href="#a"/>
            </mask>
            <path fill="#62747B" d="M15.66 19.064c0-3.745-1.362-7.149-3.575-9.873-.17-.255-.34-.426-.596-.68-.17-.171-.255-.34-.425-.51-.17-.171-.34-.341-.596-.512-.425-.426-.936-.765-1.362-1.106-.085 0-.085-.085-.17-.085A5.724 5.724 0 0 0 8 5.702c-.085-.085-.17-.085-.17-.17l-1.021-.51c-.086 0-.17-.086-.256-.086-.34-.17-.68-.34-1.021-.426-.085 0-.17-.084-.255-.084-.34-.17-.766-.256-1.107-.341-.085 0-.085 0-.17-.085-.426-.085-.766-.17-1.191-.255v25.277l8.17 3.914 6.127 2.98 17.107-8.256v3.149h-.085v.084l-17.022 8.256-6.808-3.234L.085 30.98v-.086H0V.766h.085c.51 0 1.021 0 1.447.085.17 0 .425.085.596.085.34 0 .595.086.936.17.255 0 .425.086.68.17.256.086.596.086.852.171.255.084.425.084.68.17.256.085.511.17.852.256.17.084.425.17.595.255.426.17.851.34 1.277.596.17.084.426.255.596.34.255.085.51.255.68.426.256.169.426.255.681.425.17.17.426.255.596.426.17.169.426.34.596.425.17.17.34.256.51.426.17.085.341.255.426.34 2.043 1.873 3.745 4.17 4.851 6.724a18.662 18.662 0 0 0-1.276 6.808" mask="url(#b)"/>
        </g>
        <path fill="#FF9100" d="M34.128.936c-2.468 0-4.851.51-7.064 1.362-.085.085-.256.085-.34.17-.256.085-.511.255-.767.34-.17.086-.34.17-.426.256-.254.17-.51.255-.68.425-.17.086-.34.17-.425.256-.256.17-.426.255-.681.425-.17.085-.341.256-.51.34-.171.17-.426.256-.597.426-.17.17-.34.256-.511.426-.17.17-.34.34-.51.425-.17.17-.341.34-.51.511-.17.17-.34.34-.426.51l-.51.511c-.172.17-.256.34-.426.51a2.56 2.56 0 0 0-.426.597c-.085.17-.255.34-.34.425-.17.255-.256.426-.426.681-.085.17-.17.34-.256.426-.17.255-.254.51-.425.765-.085.17-.17.34-.255.426-.085.255-.255.51-.34.766-.085.085-.085.255-.17.34-.256.511-.426 1.107-.596 1.617a18.56 18.56 0 0 0-.767 5.362c0-3.319-1.106-6.383-2.893-8.936-2.468-1.787-5.702-3.32-9.957-3.745v2.894c4.255.51 7.318 2.213 9.446 4.085-2.297-.936-5.446-1.702-9.446-1.702v2.808c9.446-.085 12.68 4.256 12.85 4.511v16.085l1.448.681 1.446-.68V19.148c0-8.596 7.064-15.66 15.66-15.66V.851l-.17.085z"/>
        <path fill="#62747B" d="M26.723 5.617s-.085 0 0 0c-.085 0 0 0 0 0"/>
        <path fill="#FFCB8B" d="M2.809 9.532V12c4.085 0 7.148.68 9.447 1.702-2.128-1.957-5.192-3.659-9.447-4.17m0 5.276v14.384l8.17 3.914 4.68 2.298V19.319c-.17-.17-3.403-4.51-12.85-4.51m9.276-5.277c-.17-.256-.34-.426-.596-.681-.17-.17-.255-.34-.426-.51a3.616 3.616 0 0 0-.595-.511c-.425-.426-.937-.766-1.362-1.107-.084 0-.084-.084-.17-.084A5.747 5.747 0 0 0 8 6.042c-.085-.084-.17-.084-.17-.17l-1.022-.51c-.084 0-.17-.086-.255-.086-.34-.169-.68-.34-1.022-.425-.084 0-.169-.085-.255-.085-.34-.17-.765-.255-1.105-.34-.086 0-.086 0-.172-.086-.425-.084-.765-.17-1.19-.254v2.723c4.255.426 7.573 1.872 9.956 3.744a3.056 3.056 0 0 0-.68-1.021"/>
    </g>
</svg>
