<?xml version="1.0" encoding="UTF-8"?>
<svg width="18px" height="18px" viewBox="0 0 18 18" version="1.1" xmlns="http://www.w3.org/2000/svg" xmlns:xlink="http://www.w3.org/1999/xlink">
    <!-- Generator: Sketch 47.1 (45422) - http://www.bohemiancoding.com/sketch -->
    <title>Artboard</title>
    <desc>Created with Sketch.</desc>
    <defs></defs>
    <g id="Page-1" stroke="none" stroke-width="1" fill="none" fill-rule="evenodd">
        <g id="Artboard" stroke="#666666">
            <path d="M9.92656888,4.73941785 C9.88520722,4.67173533 9.82833637,4.61486448 9.76065385,4.57350282 C9.52502677,4.42950808 9.21728246,4.50379076 9.07328772,4.73941785 L3.57335942,13.7392744 C3.52538456,13.8177785 3.5,13.9079974 3.5,14 C3.5,14.2761424 3.72385763,14.5 4,14.5 L14.9998566,14.5 C15.0918592,14.5 15.1820781,14.4746154 15.2605821,14.4266406 C15.4962092,14.2826458 15.5704919,13.9749015 15.4264972,13.7392744 L9.92656888,4.73941785 Z" id="Triangle-2" transform="translate(9.500000, 9.500000) rotate(90.000000) translate(-9.500000, -9.500000) "></path>
        </g>
    </g>
</svg>