<?xml version="1.0" encoding="UTF-8"?>
<svg width="40px" height="40px" viewBox="0 0 40 40" version="1.1" xmlns="http://www.w3.org/2000/svg" xmlns:xlink="http://www.w3.org/1999/xlink">
    <!-- Generator: Sketch 46.2 (44496) - http://www.bohemiancoding.com/sketch -->
    <title>Shape</title>
    <desc>Created with Sketch.</desc>
    <defs></defs>
    <g id="Page-1" stroke="none" stroke-width="1" fill="none" fill-rule="evenodd">
        <g id="support_v2_request" transform="translate(-954.000000, -342.000000)" fill-rule="nonzero" fill="#999999">
            <g id="sun" transform="translate(954.000000, 342.000000)">
                <path d="M20,11.8487805 C15.4982058,11.8487805 11.8487805,15.4982058 11.8487805,20 C11.8487805,24.5017942 15.4982058,28.1512195 20,28.1512195 C24.5017942,28.1512195 28.1512195,24.5017942 28.1512195,20 C28.1458437,15.5004344 24.4995656,11.8541563 20,11.8487805 Z M20,26.204878 C16.5764698,26.204877 13.8008993,23.4300329 13.8000021,20.0065028 C13.799105,16.5829727 16.5732208,13.8066743 19.9967505,13.8048789 C23.4202803,13.8030835 26.1973064,16.5764708 26.2,20 C26.194628,23.4219378 23.4219378,26.194628 20,26.2 L20,26.204878 Z M19.0243902,7.1804878 L19.0243902,1.42439024 C19.0243902,0.885575854 19.4611856,0.448780488 20,0.448780488 C20.5388144,0.448780488 20.9756098,0.885575854 20.9756098,1.42439024 L20.9756098,7.2 C20.9756098,7.73881439 20.5388144,8.17560976 20,8.17560976 C19.4611856,8.17560976 19.0243902,7.73881439 19.0243902,7.2 L19.0243902,7.1804878 Z M6.17560976,7.53170732 C5.79439858,7.15049613 5.79439859,6.5324307 6.17560977,6.15121952 C6.55682094,5.77000835 7.17488638,5.77000834 7.55609756,6.15121951 L11.6390244,10.2439024 C12.0242767,10.6291547 12.0242767,11.2537721 11.6390244,11.6390244 C11.2537721,12.0242767 10.6291547,12.0242767 10.2439024,11.6390244 L6.17560976,7.53170732 Z M7.2,20.9756098 L1.42439024,20.9756098 C0.885575854,20.9756098 0.448780488,20.5388144 0.448780488,20 C0.448780488,19.4611856 0.885575854,19.0243902 1.42439024,19.0243902 L7.2,19.0243902 C7.73881439,19.0243902 8.17560976,19.4611856 8.17560976,20 C8.17560976,20.5388144 7.73881439,20.9756098 7.2,20.9756098 Z M11.6390244,28.3609756 C11.8222215,28.543969 11.9251577,28.7922837 11.9251577,29.0512195 C11.9251577,29.3101554 11.8222215,29.55847 11.6390244,29.7414634 L7.55121951,33.8292683 C7.30461912,34.0758687 6.94519121,34.1721771 6.60832881,34.0819151 C6.2714664,33.9916531 6.00834691,33.7285336 5.9180849,33.3916712 C5.8278229,33.0548088 5.92413131,32.6953809 6.17073171,32.4487805 L10.2439024,28.3609756 C10.4274541,28.1732559 10.6789183,28.0674385 10.9414634,28.0674385 C11.2040085,28.0674385 11.4554727,28.1732559 11.6390244,28.3609756 Z M20.9756098,32.8 L20.9756098,38.5756098 C20.9756098,39.1144241 20.5388144,39.5512195 20,39.5512195 C19.4611856,39.5512195 19.0243902,39.1144241 19.0243902,38.5756098 L19.0243902,32.8 C19.0243902,32.2611856 19.4611856,31.8243902 20,31.8243902 C20.5388144,31.8243902 20.9756098,32.2611856 20.9756098,32.8 Z M33.8243902,32.4487805 C34.0709906,32.6953809 34.1672991,33.0548088 34.077037,33.3916712 C33.986775,33.7285336 33.7236555,33.9916531 33.3867931,34.0819151 C33.0499307,34.1721771 32.6905028,34.0758687 32.4439024,33.8292683 L28.3609756,29.7560976 C27.9757234,29.3708453 27.9757234,28.7462279 28.3609757,28.3609757 C28.7462279,27.9757234 29.3708453,27.9757234 29.7560976,28.3609756 L33.8243902,32.4487805 Z M39.5512195,20 C39.5512195,20.5388144 39.1144241,20.9756098 38.5756098,20.9756098 L32.8,20.9756098 C32.2611856,20.9756098 31.8243902,20.5388144 31.8243902,20 C31.8243902,19.4611856 32.2611856,19.0243902 32.8,19.0243902 L38.5756098,19.0243902 C39.1144241,19.0243902 39.5512195,19.4611856 39.5512195,20 Z M28.3609756,11.6390244 C28.1777785,11.456031 28.0748423,11.2077163 28.0748423,10.9487805 C28.0748423,10.6898446 28.1777785,10.44153 28.3609756,10.2585366 L32.4487805,6.17073171 C32.6953809,5.92413131 33.0548088,5.8278229 33.3916712,5.9180849 C33.7285336,6.00834691 33.9916531,6.2714664 34.0819151,6.60832881 C34.1721771,6.94519121 34.0758687,7.30461912 33.8292683,7.55121951 L29.7560976,11.6390244 C29.5731041,11.8222215 29.3247895,11.9251577 29.0658537,11.9251577 C28.8069178,11.9251577 28.5586032,11.8222215 28.3756098,11.6390244 L28.3609756,11.6390244 Z" id="Shape"></path>
            </g>
        </g>
    </g>
</svg>