<svg version="1.1" id="Слой_1" xmlns="http://www.w3.org/2000/svg" xmlns:xlink="http://www.w3.org/1999/xlink" x="0px" y="0px"
	 width="82.652px" height="82.65px" viewBox="0 0 82.652 82.65" enable-background="new 0 0 82.652 82.65" xml:space="preserve">
<path fill="#EDF2F7" d="M81.514,41.42c0,22.477-18.221,40.7-40.701,40.7c-22.475,0-40.697-18.223-40.697-40.7
	c0-22.479,18.223-40.701,40.697-40.701C63.294,0.719,81.514,18.942,81.514,41.42z"/>
<g>
	<path fill="#981064" d="M70.332,25H51.005v55.967c2.491-0.603,4.891-1.436,7.179-2.473c-1.708-0.9-2.887-2.672-2.887-4.736
		c0-2.965,2.405-5.371,5.371-5.371c2.967,0,5.372,2.406,5.372,5.371c0,0.018-0.005,0.033-0.005,0.051
		c1.52-1.158,2.956-2.418,4.297-3.773V25z M67.469,65.167H53.867V27.658h13.602V65.167z"/>
	<path fill="#FFFFFF" d="M53.867,65.167h13.602V27.658H53.867V65.167z M56.91,61.216h7.516c0.791,0,1.432,0.529,1.432,1.182
		s-0.641,1.182-1.432,1.182H56.91c-0.79,0-1.431-0.529-1.431-1.182S56.12,61.216,56.91,61.216z"/>
	<path fill="#EFEDEF" d="M60.668,68.387c-2.966,0-5.371,2.406-5.371,5.371c0,2.064,1.179,3.836,2.887,4.736
		c0.638-0.289,1.266-0.594,1.885-0.914c-1.855-0.291-3.282-1.885-3.282-3.822c0-2.143,1.739-3.883,3.882-3.883
		c2.144,0,3.883,1.74,3.883,3.883c0,0.457-0.094,0.89-0.239,1.297c0.587-0.4,1.16-0.816,1.724-1.246
		c0-0.018,0.005-0.033,0.005-0.051C66.04,70.794,63.635,68.387,60.668,68.387z"/>
	<path fill="#D40050" d="M60.668,69.876c-2.143,0-3.882,1.74-3.882,3.883c0,1.938,1.427,3.531,3.282,3.822
		c1.468-0.76,2.887-1.6,4.243-2.525c0.146-0.407,0.239-0.84,0.239-1.297C64.551,71.616,62.811,69.876,60.668,69.876z"/>
	<path fill="#551B33" d="M56.91,63.579h7.516c0.791,0,1.432-0.529,1.432-1.182s-0.641-1.182-1.432-1.182H56.91
		c-0.79,0-1.431,0.529-1.431,1.182S56.12,63.579,56.91,63.579z"/>
	<path fill="#729460" d="M38.445,82.001h5.903c2.27-0.162,4.487-0.509,6.639-1.028V25H31.791v55.968
		C33.947,81.491,36.17,81.839,38.445,82.001z M41.324,79.13c-2.967,0-5.372-2.404-5.372-5.371c0-2.965,2.405-5.371,5.372-5.371
		c2.966,0,5.371,2.406,5.371,5.371C46.695,76.725,44.29,79.13,41.324,79.13z M34.523,27.658h13.601v37.508H34.523V27.658z"/>
	<path fill="#FFFFFF" d="M48.124,27.658H34.523v37.508h13.601V27.658z M45.082,63.579h-7.516c-0.791,0-1.432-0.529-1.432-1.182
		s0.641-1.182,1.432-1.182h7.516c0.791,0,1.431,0.529,1.431,1.182S45.873,63.579,45.082,63.579z"/>
	<path fill="#EFEDEF" d="M41.324,68.387c-2.967,0-5.372,2.406-5.372,5.371c0,2.967,2.405,5.371,5.372,5.371
		c2.966,0,5.371-2.404,5.371-5.371C46.695,70.794,44.29,68.387,41.324,68.387z M41.324,77.641c-2.144,0-3.883-1.74-3.883-3.883
		s1.739-3.883,3.883-3.883c2.143,0,3.882,1.74,3.882,3.883S43.467,77.641,41.324,77.641z"/>
	<circle fill="#72B560" cx="41.324" cy="73.759" r="3.883"/>
	<path fill="#551B33" d="M45.082,61.216h-7.516c-0.791,0-1.432,0.529-1.432,1.182s0.641,1.182,1.432,1.182h7.516
		c0.791,0,1.431-0.529,1.431-1.182S45.873,61.216,45.082,61.216z"/>
	<path fill="#FF8206" d="M31.791,80.969V25h-0.13H12.465v45.036c1.341,1.355,2.777,2.615,4.296,3.772
		c0-0.017-0.005-0.032-0.005-0.05c0-2.965,2.405-5.371,5.371-5.371c2.967,0,5.372,2.406,5.372,5.371
		c0,2.064-1.179,3.836-2.887,4.735C26.9,79.532,29.3,80.365,31.791,80.969z M28.927,65.167H15.326V27.658h13.602V65.167z"/>
	<path fill="#FFFFFF" d="M15.326,65.167h13.602V27.658H15.326V65.167z M18.37,61.216h7.515c0.791,0,1.432,0.529,1.432,1.182
		s-0.641,1.182-1.432,1.182H18.37c-0.791,0-1.432-0.529-1.432-1.182S17.579,61.216,18.37,61.216z"/>
	<path fill="#EFEDEF" d="M27.499,73.759c0-2.965-2.405-5.371-5.372-5.371c-2.966,0-5.371,2.406-5.371,5.371
		c0,0.018,0.005,0.033,0.005,0.05c0.563,0.429,1.137,0.847,1.723,1.247c-0.145-0.408-0.238-0.84-0.238-1.297
		c0-2.143,1.739-3.883,3.882-3.883c2.144,0,3.883,1.74,3.883,3.883c0,1.938-1.426,3.531-3.282,3.822
		c0.619,0.32,1.247,0.624,1.885,0.913C26.32,77.594,27.499,75.823,27.499,73.759z"/>
	<path fill="#FFA006" d="M26.01,73.759c0-2.143-1.739-3.883-3.883-3.883c-2.143,0-3.882,1.74-3.882,3.883
		c0,0.457,0.094,0.889,0.238,1.297c1.357,0.926,2.776,1.766,4.244,2.525C24.584,77.29,26.01,75.696,26.01,73.759z"/>
	<path fill="#551B33" d="M18.37,63.579h7.515c0.791,0,1.432-0.529,1.432-1.182s-0.641-1.182-1.432-1.182H18.37
		c-0.791,0-1.432,0.529-1.432,1.182S17.579,63.579,18.37,63.579z"/>
</g>
<g>
	<path fill="#D7DEE2" d="M40.815,82.745c-22.789,0-41.326-18.539-41.326-41.325c0-22.789,18.537-41.326,41.326-41.326
		c22.785,0,41.324,18.537,41.324,41.326C82.139,64.206,63.6,82.745,40.815,82.745z M40.815,1.168
		C18.62,1.168,0.563,19.225,0.563,41.42c0,22.194,18.057,40.25,40.252,40.25c22.193,0,40.25-18.057,40.25-40.25
		C81.065,19.225,63.009,1.168,40.815,1.168z"/>
</g>
</svg>
